Select (table5.Transactions/Table6.Transactions)*100 as Transactions, Table5.Channel as Channel, 'LasttWeek' as X, '3' as count from

(SELECT
    (Table3.Transactions*Table4.Transactions) AS Transactions, Channel,table3.system as system  FROM (
    SELECT
      Transactions,Channel,system from(SELECT
        Table1.Transactions/Table2.Transactions AS Transactions,
        Table1.Channel AS Channel,
        Table1.system AS system
      FROM (
        SELECT sum(Transactions) AS transactions, Channel, system FROM
          [99820348.View_ChannelsData]
        WHERE
          date BETWEEN '20160403'
          AND '20160409'
        GROUP BY 2,3) Table1
      JOIN (
        SELECT SUM(Transactions) AS Transactions, 'X' AS system
        FROM [99820348.View_ChannelsData] WHERE date BETWEEN '20160403' AND '20160409'
        GROUP BY 2) Table2
      ON
        Table1.system=table2.system ) group by 1,2,3) Table3
  JOIN (
    SELECT
      COUNT(DISTINCT order_reference) AS Transactions,'X' AS system FROM
      [99820348.Retail_GoogleStore_Sales_studio]
    WHERE
      orderdate BETWEEN '20160403'
      AND '20160409' and ProjectFi='No project_fi SKUs') Table4
  ON
    Table3.system=Table4.system 
    group by 1,2,3) Table5
   
   join
    (    
    select sum(transactions) as Transactions, system from (
SELECT
    (Table3.Transactions*Table4.Transactions) AS Transactions, Channel,table3.system as system  FROM (
    SELECT
      Transactions,Channel,system from(SELECT
        Table1.Transactions/Table2.Transactions AS Transactions,
        Table1.Channel AS Channel,
        Table1.system AS system
      FROM (
        SELECT sum(Transactions) AS transactions, Channel, system FROM
          [99820348.View_ChannelsData]
        WHERE
          date BETWEEN '20160403'
          AND '20160409'
        GROUP BY 2,3) Table1
      JOIN (
        SELECT SUM(Transactions) AS Transactions, 'X' AS system
        FROM [99820348.View_ChannelsData] WHERE date BETWEEN '20160403' AND '20160409'
        GROUP BY 2) Table2
      ON
        Table1.system=table2.system ) group by 1,2,3) Table3
  JOIN (
    SELECT
      COUNT(DISTINCT order_reference) AS Transactions,'X' AS system FROM
      [99820348.Retail_GoogleStore_Sales_studio]
    WHERE
      orderdate BETWEEN '20160403'
      AND '20160409' and ProjectFi='No project_fi SKUs') Table4
  ON
    Table3.system=Table4.system 
    group by 1,2,3)
    group by 2) Table6
    on Table5.system=Table6.system
    